…
``` r
region_age <- welfare %>% 
  group_by(region, age_group) %>% 
  summarise(count=n()) %>% 
  mutate(tot_age=sum(count)) %>% 
  mutate(pct= round(count/tot_age*100),1)
```

    ## `summarise()` regrouping output by 'region' (override with `.groups` argument)

``` r
region_age
```

    ## # A tibble: 28 x 6
    ## # Groups:   region [7]
    ##    region                age_group count tot_age   pct   `1`
    ##    <chr>                 <chr>     <int>   <int> <dbl> <dbl>
    ##  1 강원/충북             middle      298    1257    24     1
    ##  2 강원/충북             old         555    1257    44     1
    ##  3 강원/충북             teenage     191    1257    15     1
    ##  4 강원/충북             young       213    1257    17     1
    ##  5 광주/전남/전북/제주도 middle      665    2922    23     1
    ##  6 광주/전남/전북/제주도 old        1233    2922    42     1
    ##  7 광주/전남/전북/제주도 teenage     502    2922    17     1
    ##  8 광주/전남/전북/제주도 young       522    2922    18     1
    ##  9 대구/경북             middle      460    2036    23     1
    ## 10 대구/경북             old         928    2036    46     1
    ## # ... with 18 more rows

#### `count()` 활용

위와 동일한 값을 추출하는 다른 방식으로 count를 사용하여 수식을 더욱 짧게 작성할 수 있습니다.

``` r
region_age <- welfare %>% 
 count(region, age_group) %>% 
  group_by(region) %>% 
  mutate(pct= round(n/sum(n)*100),1)
region_age
```

    ## # A tibble: 28 x 5
    ## # Groups:   region [7]
    ##    region                age_group     n   pct   `1`
    ##    <chr>                 <chr>     <int> <dbl> <dbl>
    ##  1 강원/충북             middle      298    24     1
    ##  2 강원/충북             old         555    44     1
    ##  3 강원/충북             teenage     191    15     1
    ##  4 강원/충북             young       213    17     1
    ##  5 광주/전남/전북/제주도 middle      665    23     1
    ##  6 광주/전남/전북/제주도 old        1233    42     1
    ##  7 광주/전남/전북/제주도 teenage     502    17     1
    ##  8 광주/전남/전북/제주도 young       522    18     1
    ##  9 대구/경북             middle      460    23     1
    ## 10 대구/경북             old         928    46     1
    ## # ... with 18 more rows
…
